<svg width="1600" height="601" viewBox="0 0 1600 601" fill="none" xmlns="http://www.w3.org/2000/svg">
<rect y="0.259277" width="1600" height="600.184" fill="url(#paint0_linear_7_101)"/>
<defs>
<linearGradient id="paint0_linear_7_101" x1="800" y1="0.259277" x2="800" y2="600.443" gradientUnits="userSpaceOnUse">
<stop stop-color="#FFFDF4"/>
<stop offset="1" stop-color="white" stop-opacity="0"/>
</linearGradient>
</defs>
</svg>
