<svg width="25" height="24" viewBox="0 0 25 24" fill="none" xmlns="http://www.w3.org/2000/svg">
<g id="Stockholm-icons / Devices / Laptop-macbook">
<path id="Combined Shape" d="M4.48633 7C4.48633 6.44771 4.93404 6 5.48633 6H19.4863C20.0386 6 20.4863 6.44772 20.4863 7V17H4.48633V7Z" fill="#2245FF"/>
<rect id="Rectangle" opacity="0.3" x="1.48633" y="18" width="22" height="1" rx="0.5" fill="#2245FF"/>
</g>
</svg>
